<?xml version="1.0" encoding="UTF-8" standalone="no"?><svg xmlns="http://www.w3.org/2000/svg" xmlns:xlink="http://www.w3.org/1999/xlink" contentScriptType="application/ecmascript" contentStyleType="text/css" height="118px" preserveAspectRatio="none" style="width:415px;height:118px;" version="1.1" viewBox="0 0 415 118" width="415px" zoomAndPan="magnify"><defs><filter height="300%" id="f1mj7ukovqt1l1" width="300%" x="-1" y="-1"><feGaussianBlur result="blurOut" stdDeviation="2.0"/><feColorMatrix in="blurOut" result="blurOut2" type="matrix" values="0 0 0 0 0 0 0 0 0 0 0 0 0 0 0 0 0 0 .4 0"/><feOffset dx="4.0" dy="4.0" in="blurOut2" result="blurOut3"/><feBlend in="SourceGraphic" in2="blurOut3" mode="normal"/></filter></defs><g><!--MD5=[d6181cb537bdc20c0a3007a98a56832d]
class Student--><rect fill="#FEFECE" filter="url(#f1mj7ukovqt1l1)" height="99.8203" id="Student" style="stroke: #A80036; stroke-width: 1.5;" width="86" x="6" y="8"/><ellipse cx="25.95" cy="24" fill="#ADD1B2" rx="11" ry="11" style="stroke: #A80036; stroke-width: 1.0;"/><path d="M28.4231,30.1431 Q27.8421,30.4419 27.2029,30.5913 Q26.5638,30.7407 25.8582,30.7407 Q23.3514,30.7407 22.0315,29.0889 Q20.7117,27.437 20.7117,24.3159 Q20.7117,21.1865 22.0315,19.5347 Q23.3514,17.8828 25.8582,17.8828 Q26.5638,17.8828 27.2112,18.0322 Q27.8587,18.1816 28.4231,18.4805 L28.4231,21.2031 Q27.7923,20.6221 27.1988,20.3523 Q26.6053,20.0825 25.9744,20.0825 Q24.6297,20.0825 23.9449,21.1492 Q23.2601,22.2158 23.2601,24.3159 Q23.2601,26.4077 23.9449,27.4744 Q24.6297,28.541 25.9744,28.541 Q26.6053,28.541 27.1988,28.2712 Q27.7923,28.0015 28.4231,27.4204 Z "/><text fill="#000000" font-family="sans-serif" font-size="12" lengthAdjust="spacingAndGlyphs" textLength="43" x="41.05" y="28.5352">Student</text><line style="stroke: #A80036; stroke-width: 1.5;" x1="7" x2="91" y1="40" y2="40"/><ellipse cx="17" cy="51" fill="none" rx="3" ry="3" style="stroke: #038048; stroke-width: 1.0;"/><text fill="#000000" font-family="sans-serif" font-size="11" lengthAdjust="spacingAndGlyphs" textLength="34" x="26" y="54.6348">int sID</text><ellipse cx="17" cy="63.9551" fill="none" rx="3" ry="3" style="stroke: #038048; stroke-width: 1.0;"/><text fill="#000000" font-family="sans-serif" font-size="11" lengthAdjust="spacingAndGlyphs" textLength="60" x="26" y="67.5898">text sName</text><ellipse cx="17" cy="76.9102" fill="none" rx="3" ry="3" style="stroke: #038048; stroke-width: 1.0;"/><text fill="#000000" font-family="sans-serif" font-size="11" lengthAdjust="spacingAndGlyphs" textLength="49" x="26" y="80.5449">float GPA</text><ellipse cx="17" cy="89.8652" fill="none" rx="3" ry="3" style="stroke: #038048; stroke-width: 1.0;"/><text fill="#000000" font-family="sans-serif" font-size="11" lengthAdjust="spacingAndGlyphs" textLength="52" x="26" y="93.5">int sizeHS</text><line style="stroke: #A80036; stroke-width: 1.5;" x1="7" x2="91" y1="99.8203" y2="99.8203"/><!--MD5=[6584eb4189611289abbb06941f844685]
class Apply--><rect fill="#FEFECE" filter="url(#f1mj7ukovqt1l1)" height="99.8203" id="Apply" style="stroke: #A80036; stroke-width: 1.5;" width="121" x="127.5" y="8"/><ellipse cx="167.7" cy="24" fill="#ADD1B2" rx="11" ry="11" style="stroke: #A80036; stroke-width: 1.0;"/><path d="M170.1731,30.1431 Q169.5921,30.4419 168.9529,30.5913 Q168.3138,30.7407 167.6082,30.7407 Q165.1014,30.7407 163.7815,29.0889 Q162.4617,27.437 162.4617,24.3159 Q162.4617,21.1865 163.7815,19.5347 Q165.1014,17.8828 167.6082,17.8828 Q168.3138,17.8828 168.9612,18.0322 Q169.6087,18.1816 170.1731,18.4805 L170.1731,21.2031 Q169.5423,20.6221 168.9488,20.3523 Q168.3553,20.0825 167.7244,20.0825 Q166.3797,20.0825 165.6949,21.1492 Q165.0101,22.2158 165.0101,24.3159 Q165.0101,26.4077 165.6949,27.4744 Q166.3797,28.541 167.7244,28.541 Q168.3553,28.541 168.9488,28.2712 Q169.5423,28.0015 170.1731,27.4204 Z "/><text fill="#000000" font-family="sans-serif" font-size="12" lengthAdjust="spacingAndGlyphs" textLength="33" x="187.3" y="28.5352">Apply</text><line style="stroke: #A80036; stroke-width: 1.5;" x1="128.5" x2="247.5" y1="40" y2="40"/><ellipse cx="138.5" cy="51" fill="none" rx="3" ry="3" style="stroke: #038048; stroke-width: 1.0;"/><text fill="#000000" font-family="sans-serif" font-size="11" lengthAdjust="spacingAndGlyphs" textLength="34" x="147.5" y="54.6348">int sID</text><ellipse cx="138.5" cy="63.9551" fill="none" rx="3" ry="3" style="stroke: #038048; stroke-width: 1.0;"/><text fill="#000000" font-family="sans-serif" font-size="11" lengthAdjust="spacingAndGlyphs" textLength="95" x="147.5" y="67.5898">varchar[8] cName</text><ellipse cx="138.5" cy="76.9102" fill="none" rx="3" ry="3" style="stroke: #038048; stroke-width: 1.0;"/><text fill="#000000" font-family="sans-serif" font-size="11" lengthAdjust="spacingAndGlyphs" textLength="55" x="147.5" y="80.5449">text major</text><ellipse cx="138.5" cy="89.8652" fill="none" rx="3" ry="3" style="stroke: #038048; stroke-width: 1.0;"/><text fill="#000000" font-family="sans-serif" font-size="11" lengthAdjust="spacingAndGlyphs" textLength="91" x="147.5" y="93.5">boolean decision</text><line style="stroke: #A80036; stroke-width: 1.5;" x1="128.5" x2="247.5" y1="99.8203" y2="99.8203"/><!--MD5=[47d6dd156e05bc484d8bd5881c976c33]
class College--><rect fill="#FEFECE" filter="url(#f1mj7ukovqt1l1)" height="86.8652" id="College" style="stroke: #A80036; stroke-width: 1.5;" width="121" x="283.5" y="14.5"/><ellipse cx="319.65" cy="30.5" fill="#ADD1B2" rx="11" ry="11" style="stroke: #A80036; stroke-width: 1.0;"/><path d="M322.1231,36.6431 Q321.5421,36.9419 320.9029,37.0913 Q320.2638,37.2407 319.5582,37.2407 Q317.0514,37.2407 315.7315,35.5889 Q314.4117,33.937 314.4117,30.8159 Q314.4117,27.6865 315.7315,26.0347 Q317.0514,24.3828 319.5582,24.3828 Q320.2638,24.3828 320.9112,24.5322 Q321.5587,24.6816 322.1231,24.9805 L322.1231,27.7031 Q321.4923,27.1221 320.8988,26.8523 Q320.3053,26.5825 319.6744,26.5825 Q318.3297,26.5825 317.6449,27.6492 Q316.9601,28.7158 316.9601,30.8159 Q316.9601,32.9077 317.6449,33.9744 Q318.3297,35.041 319.6744,35.041 Q320.3053,35.041 320.8988,34.7712 Q321.4923,34.5015 322.1231,33.9204 Z "/><text fill="#000000" font-family="sans-serif" font-size="12" lengthAdjust="spacingAndGlyphs" textLength="42" x="338.35" y="35.0352">College</text><line style="stroke: #A80036; stroke-width: 1.5;" x1="284.5" x2="403.5" y1="46.5" y2="46.5"/><ellipse cx="294.5" cy="57.5" fill="none" rx="3" ry="3" style="stroke: #038048; stroke-width: 1.0;"/><text fill="#000000" font-family="sans-serif" font-size="11" lengthAdjust="spacingAndGlyphs" textLength="95" x="303.5" y="61.1348">varchar[8] cName</text><ellipse cx="294.5" cy="70.4551" fill="none" rx="3" ry="3" style="stroke: #038048; stroke-width: 1.0;"/><text fill="#000000" font-family="sans-serif" font-size="11" lengthAdjust="spacingAndGlyphs" textLength="68" x="303.5" y="74.0898">char[2] state</text><ellipse cx="294.5" cy="83.4102" fill="none" rx="3" ry="3" style="stroke: #038048; stroke-width: 1.0;"/><text fill="#000000" font-family="sans-serif" font-size="11" lengthAdjust="spacingAndGlyphs" textLength="75" x="303.5" y="87.0449">int enrollment</text><line style="stroke: #A80036; stroke-width: 1.5;" x1="284.5" x2="403.5" y1="93.3652" y2="93.3652"/><!--MD5=[666084d2b867fbb94f74ef60ecde42e3]
reverse link Student to Apply--><path d="M105.36,58 C112.69,58 120.02,58 127.36,58 " fill="none" id="Student&lt;-Apply" style="stroke: #A80036; stroke-width: 1.0;"/><polygon fill="#FFFFFF" points="92.17,58,98.17,62,104.17,58,98.17,54,92.17,58" style="stroke: #A80036; stroke-width: 1.0;"/><text fill="#000000" font-family="sans-serif" font-size="13" lengthAdjust="spacingAndGlyphs" textLength="8" x="99.9825" y="54.3668">1</text><text fill="#000000" font-family="sans-serif" font-size="13" lengthAdjust="spacingAndGlyphs" textLength="6" x="113.6039" y="54.6842">*</text><!--MD5=[336bd69c323f90151d5fd181a7c89507]
link Apply to College--><path d="M248.63,58 C255.76,58 262.89,58 270.02,58 " fill="none" id="Apply-&gt;College" style="stroke: #A80036; stroke-width: 1.0;"/><polygon fill="#FFFFFF" points="283.28,58,277.28,54,271.28,58,277.28,62,283.28,58" style="stroke: #A80036; stroke-width: 1.0;"/><text fill="#000000" font-family="sans-serif" font-size="13" lengthAdjust="spacingAndGlyphs" textLength="6" x="256.3849" y="54.6842">*</text><text fill="#000000" font-family="sans-serif" font-size="13" lengthAdjust="spacingAndGlyphs" textLength="8" x="267.3923" y="54.6814">1</text><!--MD5=[935ca0975f0b11d437c4d9614311d77d]
@startuml

Student "1" o- "*" Apply
Apply   "*" -o "1" College

class Student {
    + int sID
    + text sName
    + float GPA
    + int sizeHS
    }

class College {
    + varchar[8] cName
    + char[2] state
    + int enrollment
    }

class Apply {
    + int sID
    + varchar[8] cName
    + text major
    + boolean decision
    }

@enduml

PlantUML version 1.2020.07(Sun Apr 19 06:42:40 CDT 2020)
(GPL source distribution)
Java Runtime: OpenJDK Runtime Environment
JVM: OpenJDK 64-Bit Server VM
Java Version: 13.0.2+8
Operating System: Mac OS X
Default Encoding: UTF-8
Language: en
Country: US
--></g></svg>